projeto/simulation/qsim/Projeto_radiador.msim.vcd
$comment
	File created using the following command:
		vcd file Projeto_radiador.msim.vcd -direction
$end
$date
	Thu May 18 03:25:48 2023
$end
$version
	ModelSim Version 2020.1
$end
$timescale
	1ps
$end

$scope module bin2bcd_vhd_vec_tst $end
$var wire 1 ! bcd_dias [3] $end
$var wire 1 " bcd_dias [2] $end
$var wire 1 # bcd_dias [1] $end
$var wire 1 $ bcd_dias [0] $end
$var wire 1 % bcd_horas [7] $end
$var wire 1 & bcd_horas [6] $end
$var wire 1 ' bcd_horas [5] $end
$var wire 1 ( bcd_horas [4] $end
$var wire 1 ) bcd_horas [3] $end
$var wire 1 * bcd_horas [2] $end
$var wire 1 + bcd_horas [1] $end
$var wire 1 , bcd_horas [0] $end
$var wire 1 - bcd_minutos [7] $end
$var wire 1 . bcd_minutos [6] $end
$var wire 1 / bcd_minutos [5] $end
$var wire 1 0 bcd_minutos [4] $end
$var wire 1 1 bcd_minutos [3] $end
$var wire 1 2 bcd_minutos [2] $end
$var wire 1 3 bcd_minutos [1] $end
$var wire 1 4 bcd_minutos [0] $end
$var wire 1 5 bin_dias [2] $end
$var wire 1 6 bin_dias [1] $end
$var wire 1 7 bin_dias [0] $end
$var wire 1 8 bin_horas [4] $end
$var wire 1 9 bin_horas [3] $end
$var wire 1 : bin_horas [2] $end
$var wire 1 ; bin_horas [1] $end
$var wire 1 < bin_horas [0] $end
$var wire 1 = bin_minutos [5] $end
$var wire 1 > bin_minutos [4] $end
$var wire 1 ? bin_minutos [3] $end
$var wire 1 @ bin_minutos [2] $end
$var wire 1 A bin_minutos [1] $end
$var wire 1 B bin_minutos [0] $end

$scope module i1 $end
$var wire 1 C gnd $end
$var wire 1 D vcc $end
$var wire 1 E unknown $end
$var wire 1 F devoe $end
$var wire 1 G devclrn $end
$var wire 1 H devpor $end
$var wire 1 I ww_devoe $end
$var wire 1 J ww_devclrn $end
$var wire 1 K ww_devpor $end
$var wire 1 L ww_bin_minutos [5] $end
$var wire 1 M ww_bin_minutos [4] $end
$var wire 1 N ww_bin_minutos [3] $end
$var wire 1 O ww_bin_minutos [2] $end
$var wire 1 P ww_bin_minutos [1] $end
$var wire 1 Q ww_bin_minutos [0] $end
$var wire 1 R ww_bin_horas [4] $end
$var wire 1 S ww_bin_horas [3] $end
$var wire 1 T ww_bin_horas [2] $end
$var wire 1 U ww_bin_horas [1] $end
$var wire 1 V ww_bin_horas [0] $end
$var wire 1 W ww_bin_dias [2] $end
$var wire 1 X ww_bin_dias [1] $end
$var wire 1 Y ww_bin_dias [0] $end
$var wire 1 Z ww_bcd_minutos [7] $end
$var wire 1 [ ww_bcd_minutos [6] $end
$var wire 1 \ ww_bcd_minutos [5] $end
$var wire 1 ] ww_bcd_minutos [4] $end
$var wire 1 ^ ww_bcd_minutos [3] $end
$var wire 1 _ ww_bcd_minutos [2] $end
$var wire 1 ` ww_bcd_minutos [1] $end
$var wire 1 a ww_bcd_minutos [0] $end
$var wire 1 b ww_bcd_horas [7] $end
$var wire 1 c ww_bcd_horas [6] $end
$var wire 1 d ww_bcd_horas [5] $end
$var wire 1 e ww_bcd_horas [4] $end
$var wire 1 f ww_bcd_horas [3] $end
$var wire 1 g ww_bcd_horas [2] $end
$var wire 1 h ww_bcd_horas [1] $end
$var wire 1 i ww_bcd_horas [0] $end
$var wire 1 j ww_bcd_dias [3] $end
$var wire 1 k ww_bcd_dias [2] $end
$var wire 1 l ww_bcd_dias [1] $end
$var wire 1 m ww_bcd_dias [0] $end
$var wire 1 n \bcd_minutos[0]~output_o\ $end
$var wire 1 o \bcd_minutos[1]~output_o\ $end
$var wire 1 p \bcd_minutos[2]~output_o\ $end
$var wire 1 q \bcd_minutos[3]~output_o\ $end
$var wire 1 r \bcd_minutos[4]~output_o\ $end
$var wire 1 s \bcd_minutos[5]~output_o\ $end
$var wire 1 t \bcd_minutos[6]~output_o\ $end
$var wire 1 u \bcd_minutos[7]~output_o\ $end
$var wire 1 v \bcd_horas[0]~output_o\ $end
$var wire 1 w \bcd_horas[1]~output_o\ $end
$var wire 1 x \bcd_horas[2]~output_o\ $end
$var wire 1 y \bcd_horas[3]~output_o\ $end
$var wire 1 z \bcd_horas[4]~output_o\ $end
$var wire 1 { \bcd_horas[5]~output_o\ $end
$var wire 1 | \bcd_horas[6]~output_o\ $end
$var wire 1 } \bcd_horas[7]~output_o\ $end
$var wire 1 ~ \bcd_dias[0]~output_o\ $end
$var wire 1 !! \bcd_dias[1]~output_o\ $end
$var wire 1 "! \bcd_dias[2]~output_o\ $end
$var wire 1 #! \bcd_dias[3]~output_o\ $end
$var wire 1 $! \bin_minutos[0]~input_o\ $end
$var wire 1 %! \bin_minutos[1]~input_o\ $end
$var wire 1 &! \bin_minutos[5]~input_o\ $end
$var wire 1 '! \bin_minutos[4]~input_o\ $end
$var wire 1 (! \bin_minutos[3]~input_o\ $end
$var wire 1 )! \Mod0|auto_generated|divider|divider|op_20~1\ $end
$var wire 1 *! \Mod0|auto_generated|divider|divider|op_20~3\ $end
$var wire 1 +! \Mod0|auto_generated|divider|divider|op_20~5\ $end
$var wire 1 ,! \Mod0|auto_generated|divider|divider|op_20~7\ $end
$var wire 1 -! \Mod0|auto_generated|divider|divider|op_20~9\ $end
$var wire 1 .! \Mod0|auto_generated|divider|divider|op_20~11\ $end
$var wire 1 /! \Mod0|auto_generated|divider|divider|op_20~13\ $end
$var wire 1 0! \Mod0|auto_generated|divider|divider|op_20~14_combout\ $end
$var wire 1 1! \Mod0|auto_generated|divider|divider|op_20~15\ $end
$var wire 1 2! \Mod0|auto_generated|divider|divider|op_20~16_combout\ $end
$var wire 1 3! \Mod0|auto_generated|divider|divider|op_20~12_combout\ $end
$var wire 1 4! \Mod0|auto_generated|divider|divider|StageOut[875]~32_combout\ $end
$var wire 1 5! \Mod0|auto_generated|divider|divider|op_20~10_combout\ $end
$var wire 1 6! \Mod0|auto_generated|divider|divider|StageOut[874]~33_combout\ $end
$var wire 1 7! \Mod0|auto_generated|divider|divider|op_20~8_combout\ $end
$var wire 1 8! \Mod0|auto_generated|divider|divider|StageOut[873]~34_combout\ $end
$var wire 1 9! \Mod0|auto_generated|divider|divider|op_20~6_combout\ $end
$var wire 1 :! \Mod0|auto_generated|divider|divider|StageOut[872]~35_combout\ $end
$var wire 1 ;! \Mod0|auto_generated|divider|divider|StageOut[871]~36_combout\ $end
$var wire 1 <! \Mod0|auto_generated|divider|divider|op_20~4_combout\ $end
$var wire 1 =! \Mod0|auto_generated|divider|divider|StageOut[871]~37_combout\ $end
$var wire 1 >! \Mod0|auto_generated|divider|divider|StageOut[870]~38_combout\ $end
$var wire 1 ?! \Mod0|auto_generated|divider|divider|op_20~2_combout\ $end
$var wire 1 @! \Mod0|auto_generated|divider|divider|StageOut[870]~39_combout\ $end
$var wire 1 A! \Mod0|auto_generated|divider|divider|StageOut[869]~40_combout\ $end
$var wire 1 B! \Mod0|auto_generated|divider|divider|op_20~0_combout\ $end
$var wire 1 C! \Mod0|auto_generated|divider|divider|StageOut[869]~41_combout\ $end
$var wire 1 D! \bin_minutos[2]~input_o\ $end
$var wire 1 E! \Mod0|auto_generated|divider|divider|StageOut[868]~42_combout\ $end
$var wire 1 F! \Mod0|auto_generated|divider|divider|StageOut[868]~43_combout\ $end
$var wire 1 G! \Mod0|auto_generated|divider|divider|op_21~1\ $end
$var wire 1 H! \Mod0|auto_generated|divider|divider|op_21~3\ $end
$var wire 1 I! \Mod0|auto_generated|divider|divider|op_21~5\ $end
$var wire 1 J! \Mod0|auto_generated|divider|divider|op_21~7\ $end
$var wire 1 K! \Mod0|auto_generated|divider|divider|op_21~9\ $end
$var wire 1 L! \Mod0|auto_generated|divider|divider|op_21~11\ $end
$var wire 1 M! \Mod0|auto_generated|divider|divider|op_21~13\ $end
$var wire 1 N! \Mod0|auto_generated|divider|divider|op_21~15\ $end
$var wire 1 O! \Mod0|auto_generated|divider|divider|op_21~17\ $end
$var wire 1 P! \Mod0|auto_generated|divider|divider|op_21~19\ $end
$var wire 1 Q! \Mod0|auto_generated|divider|divider|op_21~20_combout\ $end
$var wire 1 R! \Mod0|auto_generated|divider|divider|StageOut[899]~44_combout\ $end
$var wire 1 S! \Mod0|auto_generated|divider|divider|StageOut[899]~45_combout\ $end
$var wire 1 T! \Mod0|auto_generated|divider|divider|op_23~0_combout\ $end
$var wire 1 U! \Mod0|auto_generated|divider|divider|op_21~18_combout\ $end
$var wire 1 V! \Mod0|auto_generated|divider|divider|StageOut[908]~46_combout\ $end
$var wire 1 W! \Mod0|auto_generated|divider|divider|op_21~16_combout\ $end
$var wire 1 X! \Mod0|auto_generated|divider|divider|StageOut[908]~47_combout\ $end
$var wire 1 Y! \Mod0|auto_generated|divider|divider|StageOut[907]~60_combout\ $end
$var wire 1 Z! \Mod0|auto_generated|divider|divider|op_21~14_combout\ $end
$var wire 1 [! \Mod0|auto_generated|divider|divider|StageOut[907]~48_combout\ $end
$var wire 1 \! \Mod0|auto_generated|divider|divider|StageOut[906]~61_combout\ $end
$var wire 1 ]! \Mod0|auto_generated|divider|divider|op_21~12_combout\ $end
$var wire 1 ^! \Mod0|auto_generated|divider|divider|StageOut[906]~49_combout\ $end
$var wire 1 _! \Mod0|auto_generated|divider|divider|StageOut[905]~62_combout\ $end
$var wire 1 `! \Mod0|auto_generated|divider|divider|op_21~10_combout\ $end
$var wire 1 a! \Mod0|auto_generated|divider|divider|StageOut[905]~50_combout\ $end
$var wire 1 b! \Mod0|auto_generated|divider|divider|StageOut[904]~63_combout\ $end
$var wire 1 c! \Mod0|auto_generated|divider|divider|op_21~8_combout\ $end
$var wire 1 d! \Mod0|auto_generated|divider|divider|StageOut[904]~51_combout\ $end
$var wire 1 e! \Mod0|auto_generated|divider|divider|StageOut[903]~64_combout\ $end
$var wire 1 f! \Mod0|auto_generated|divider|divider|op_21~6_combout\ $end
$var wire 1 g! \Mod0|auto_generated|divider|divider|StageOut[903]~52_combout\ $end
$var wire 1 h! \Mod0|auto_generated|divider|divider|StageOut[902]~65_combout\ $end
$var wire 1 i! \Mod0|auto_generated|divider|divider|op_21~4_combout\ $end
$var wire 1 j! \Mod0|auto_generated|divider|divider|StageOut[902]~53_combout\ $end
$var wire 1 k! \Mod0|auto_generated|divider|divider|StageOut[901]~66_combout\ $end
$var wire 1 l! \Mod0|auto_generated|divider|divider|op_21~2_combout\ $end
$var wire 1 m! \Mod0|auto_generated|divider|divider|StageOut[901]~54_combout\ $end
$var wire 1 n! \Mod0|auto_generated|divider|divider|StageOut[900]~55_combout\ $end
$var wire 1 o! \Mod0|auto_generated|divider|divider|op_21~0_combout\ $end
$var wire 1 p! \Mod0|auto_generated|divider|divider|StageOut[900]~56_combout\ $end
$var wire 1 q! \Mod0|auto_generated|divider|divider|op_23~1\ $end
$var wire 1 r! \Mod0|auto_generated|divider|divider|op_23~3\ $end
$var wire 1 s! \Mod0|auto_generated|divider|divider|op_23~5\ $end
$var wire 1 t! \Mod0|auto_generated|divider|divider|op_23~7_cout\ $end
$var wire 1 u! \Mod0|auto_generated|divider|divider|op_23~9_cout\ $end
$var wire 1 v! \Mod0|auto_generated|divider|divider|op_23~11_cout\ $end
$var wire 1 w! \Mod0|auto_generated|divider|divider|op_23~13_cout\ $end
$var wire 1 x! \Mod0|auto_generated|divider|divider|op_23~15_cout\ $end
$var wire 1 y! \Mod0|auto_generated|divider|divider|op_23~17_cout\ $end
$var wire 1 z! \Mod0|auto_generated|divider|divider|op_23~19_cout\ $end
$var wire 1 {! \Mod0|auto_generated|divider|divider|op_23~21_cout\ $end
$var wire 1 |! \Mod0|auto_generated|divider|divider|op_23~22_combout\ $end
$var wire 1 }! \Mod0|auto_generated|divider|divider|StageOut[931]~57_combout\ $end
$var wire 1 ~! \Mod0|auto_generated|divider|divider|op_23~2_combout\ $end
$var wire 1 !" \Mod0|auto_generated|divider|divider|StageOut[932]~58_combout\ $end
$var wire 1 "" \Mod0|auto_generated|divider|divider|op_23~4_combout\ $end
$var wire 1 #" \Mod0|auto_generated|divider|divider|StageOut[933]~59_combout\ $end
$var wire 1 $" \Div0|auto_generated|divider|divider|add_sub_28_result_int[1]~1\ $end
$var wire 1 %" \Div0|auto_generated|divider|divider|add_sub_28_result_int[2]~2_combout\ $end
$var wire 1 &" \Div0|auto_generated|divider|divider|add_sub_28_result_int[2]~3\ $end
$var wire 1 '" \Div0|auto_generated|divider|divider|add_sub_28_result_int[3]~5\ $end
$var wire 1 (" \Div0|auto_generated|divider|divider|add_sub_28_result_int[4]~7_cout\ $end
$var wire 1 )" \Div0|auto_generated|divider|divider|add_sub_28_result_int[5]~8_combout\ $end
$var wire 1 *" \Div0|auto_generated|divider|divider|StageOut[143]~16_combout\ $end
$var wire 1 +" \Div0|auto_generated|divider|divider|add_sub_28_result_int[3]~4_combout\ $end
$var wire 1 ," \Div0|auto_generated|divider|divider|StageOut[143]~17_combout\ $end
$var wire 1 -" \Div0|auto_generated|divider|divider|StageOut[142]~18_combout\ $end
$var wire 1 ." \Div0|auto_generated|divider|divider|StageOut[142]~19_combout\ $end
$var wire 1 /" \Div0|auto_generated|divider|divider|StageOut[141]~20_combout\ $end
$var wire 1 0" \Div0|auto_generated|divider|divider|add_sub_28_result_int[1]~0_combout\ $end
$var wire 1 1" \Div0|auto_generated|divider|divider|StageOut[141]~21_combout\ $end
$var wire 1 2" \Div0|auto_generated|divider|divider|StageOut[140]~22_combout\ $end
$var wire 1 3" \Div0|auto_generated|divider|divider|StageOut[140]~23_combout\ $end
$var wire 1 4" \Div0|auto_generated|divider|divider|add_sub_29_result_int[1]~1\ $end
$var wire 1 5" \Div0|auto_generated|divider|divider|add_sub_29_result_int[2]~3\ $end
$var wire 1 6" \Div0|auto_generated|divider|divider|add_sub_29_result_int[3]~5\ $end
$var wire 1 7" \Div0|auto_generated|divider|divider|add_sub_29_result_int[4]~7_cout\ $end
$var wire 1 8" \Div0|auto_generated|divider|divider|add_sub_29_result_int[5]~8_combout\ $end
$var wire 1 9" \Div0|auto_generated|divider|divider|StageOut[148]~30_combout\ $end
$var wire 1 :" \Div0|auto_generated|divider|divider|add_sub_29_result_int[3]~4_combout\ $end
$var wire 1 ;" \Div0|auto_generated|divider|divider|StageOut[148]~24_combout\ $end
$var wire 1 <" \Div0|auto_generated|divider|divider|StageOut[147]~31_combout\ $end
$var wire 1 =" \Div0|auto_generated|divider|divider|add_sub_29_result_int[2]~2_combout\ $end
$var wire 1 >" \Div0|auto_generated|divider|divider|StageOut[147]~25_combout\ $end
$var wire 1 ?" \Div0|auto_generated|divider|divider|StageOut[146]~26_combout\ $end
$var wire 1 @" \Div0|auto_generated|divider|divider|add_sub_29_result_int[1]~0_combout\ $end
$var wire 1 A" \Div0|auto_generated|divider|divider|StageOut[146]~27_combout\ $end
$var wire 1 B" \Div0|auto_generated|divider|divider|StageOut[145]~28_combout\ $end
$var wire 1 C" \Div0|auto_generated|divider|divider|StageOut[145]~29_combout\ $end
$var wire 1 D" \Div0|auto_generated|divider|divider|add_sub_30_result_int[1]~1_cout\ $end
$var wire 1 E" \Div0|auto_generated|divider|divider|add_sub_30_result_int[2]~3_cout\ $end
$var wire 1 F" \Div0|auto_generated|divider|divider|add_sub_30_result_int[3]~5_cout\ $end
$var wire 1 G" \Div0|auto_generated|divider|divider|add_sub_30_result_int[4]~7_cout\ $end
$var wire 1 H" \Div0|auto_generated|divider|divider|add_sub_30_result_int[5]~8_combout\ $end
$var wire 1 I" \bin_horas[0]~input_o\ $end
$var wire 1 J" \bin_horas[1]~input_o\ $end
$var wire 1 K" \bin_horas[4]~input_o\ $end
$var wire 1 L" \bin_horas[3]~input_o\ $end
$var wire 1 M" \bin_horas[2]~input_o\ $end
$var wire 1 N" \Mod1|auto_generated|divider|divider|op_21~1\ $end
$var wire 1 O" \Mod1|auto_generated|divider|divider|op_21~3\ $end
$var wire 1 P" \Mod1|auto_generated|divider|divider|op_21~5\ $end
$var wire 1 Q" \Mod1|auto_generated|divider|divider|op_21~7\ $end
$var wire 1 R" \Mod1|auto_generated|divider|divider|op_21~9\ $end
$var wire 1 S" \Mod1|auto_generated|divider|divider|op_21~11\ $end
$var wire 1 T" \Mod1|auto_generated|divider|divider|op_21~13\ $end
$var wire 1 U" \Mod1|auto_generated|divider|divider|op_21~15\ $end
$var wire 1 V" \Mod1|auto_generated|divider|divider|op_21~16_combout\ $end
$var wire 1 W" \Mod1|auto_generated|divider|divider|StageOut[899]~0_combout\ $end
$var wire 1 X" \Mod1|auto_generated|divider|divider|StageOut[899]~1_combout\ $end
$var wire 1 Y" \Mod1|auto_generated|divider|divider|op_23~0_combout\ $end
$var wire 1 Z" \Mod1|auto_generated|divider|divider|op_21~14_combout\ $end
$var wire 1 [" \Mod1|auto_generated|divider|divider|op_21~12_combout\ $end
$var wire 1 \" \Mod1|auto_generated|divider|divider|StageOut[906]~2_combout\ $end
$var wire 1 ]" \Mod1|auto_generated|divider|divider|op_21~10_combout\ $end
$var wire 1 ^" \Mod1|auto_generated|divider|divider|StageOut[905]~3_combout\ $end
$var wire 1 _" \Mod1|auto_generated|divider|divider|op_21~8_combout\ $end
$var wire 1 `" \Mod1|auto_generated|divider|divider|StageOut[904]~4_combout\ $end
$var wire 1 a" \Mod1|auto_generated|divider|divider|op_21~6_combout\ $end
$var wire 1 b" \Mod1|auto_generated|divider|divider|StageOut[903]~5_combout\ $end
$var wire 1 c" \Mod1|auto_generated|divider|divider|StageOut[902]~6_combout\ $end
$var wire 1 d" \Mod1|auto_generated|divider|divider|op_21~4_combout\ $end
$var wire 1 e" \Mod1|auto_generated|divider|divider|StageOut[902]~7_combout\ $end
$var wire 1 f" \Mod1|auto_generated|divider|divider|StageOut[901]~8_combout\ $end
$var wire 1 g" \Mod1|auto_generated|divider|divider|op_21~2_combout\ $end
$var wire 1 h" \Mod1|auto_generated|divider|divider|StageOut[901]~9_combout\ $end
$var wire 1 i" \Mod1|auto_generated|divider|divider|StageOut[900]~10_combout\ $end
$var wire 1 j" \Mod1|auto_generated|divider|divider|op_21~0_combout\ $end
$var wire 1 k" \Mod1|auto_generated|divider|divider|StageOut[900]~11_combout\ $end
$var wire 1 l" \Mod1|auto_generated|divider|divider|op_23~1\ $end
$var wire 1 m" \Mod1|auto_generated|divider|divider|op_23~3\ $end
$var wire 1 n" \Mod1|auto_generated|divider|divider|op_23~5\ $end
$var wire 1 o" \Mod1|auto_generated|divider|divider|op_23~7_cout\ $end
$var wire 1 p" \Mod1|auto_generated|divider|divider|op_23~9_cout\ $end
$var wire 1 q" \Mod1|auto_generated|divider|divider|op_23~11_cout\ $end
$var wire 1 r" \Mod1|auto_generated|divider|divider|op_23~13_cout\ $end
$var wire 1 s" \Mod1|auto_generated|divider|divider|op_23~15_cout\ $end
$var wire 1 t" \Mod1|auto_generated|divider|divider|op_23~17_cout\ $end
$var wire 1 u" \Mod1|auto_generated|divider|divider|op_23~18_combout\ $end
$var wire 1 v" \Mod1|auto_generated|divider|divider|StageOut[931]~12_combout\ $end
$var wire 1 w" \Mod1|auto_generated|divider|divider|op_23~2_combout\ $end
$var wire 1 x" \Mod1|auto_generated|divider|divider|StageOut[932]~13_combout\ $end
$var wire 1 y" \Mod1|auto_generated|divider|divider|op_23~4_combout\ $end
$var wire 1 z" \Mod1|auto_generated|divider|divider|StageOut[933]~14_combout\ $end
$var wire 1 {" \Div1|auto_generated|divider|divider|add_sub_29_result_int[1]~1\ $end
$var wire 1 |" \Div1|auto_generated|divider|divider|add_sub_29_result_int[2]~3\ $end
$var wire 1 }" \Div1|auto_generated|divider|divider|add_sub_29_result_int[3]~5\ $end
$var wire 1 ~" \Div1|auto_generated|divider|divider|add_sub_29_result_int[4]~7_cout\ $end
$var wire 1 !# \Div1|auto_generated|divider|divider|add_sub_29_result_int[5]~8_combout\ $end
$var wire 1 "# \Div1|auto_generated|divider|divider|StageOut[148]~0_combout\ $end
$var wire 1 ## \Div1|auto_generated|divider|divider|add_sub_29_result_int[3]~4_combout\ $end
$var wire 1 $# \Div1|auto_generated|divider|divider|StageOut[148]~1_combout\ $end
$var wire 1 %# \Div1|auto_generated|divider|divider|StageOut[147]~2_combout\ $end
$var wire 1 &# \Div1|auto_generated|divider|divider|add_sub_29_result_int[2]~2_combout\ $end
$var wire 1 '# \Div1|auto_generated|divider|divider|StageOut[147]~3_combout\ $end
$var wire 1 (# \Div1|auto_generated|divider|divider|StageOut[146]~4_combout\ $end
$var wire 1 )# \Div1|auto_generated|divider|divider|add_sub_29_result_int[1]~0_combout\ $end
$var wire 1 *# \Div1|auto_generated|divider|divider|StageOut[146]~5_combout\ $end
$var wire 1 +# \Div1|auto_generated|divider|divider|StageOut[145]~6_combout\ $end
$var wire 1 ,# \Div1|auto_generated|divider|divider|StageOut[145]~7_combout\ $end
$var wire 1 -# \Div1|auto_generated|divider|divider|add_sub_30_result_int[1]~1_cout\ $end
$var wire 1 .# \Div1|auto_generated|divider|divider|add_sub_30_result_int[2]~3_cout\ $end
$var wire 1 /# \Div1|auto_generated|divider|divider|add_sub_30_result_int[3]~5_cout\ $end
$var wire 1 0# \Div1|auto_generated|divider|divider|add_sub_30_result_int[4]~7_cout\ $end
$var wire 1 1# \Div1|auto_generated|divider|divider|add_sub_30_result_int[5]~8_combout\ $end
$var wire 1 2# \bin_dias[0]~input_o\ $end
$var wire 1 3# \bin_dias[1]~input_o\ $end
$var wire 1 4# \bin_dias[2]~input_o\ $end
$var wire 1 5# \Div1|auto_generated|divider|divider|ALT_INV_add_sub_30_result_int[5]~8_combout\ $end
$var wire 1 6# \Div1|auto_generated|divider|divider|ALT_INV_add_sub_29_result_int[5]~8_combout\ $end
$var wire 1 7# \Div0|auto_generated|divider|divider|ALT_INV_add_sub_30_result_int[5]~8_combout\ $end
$var wire 1 8# \Div0|auto_generated|divider|divider|ALT_INV_add_sub_29_result_int[5]~8_combout\ $end
$var wire 1 9# \Div0|auto_generated|divider|divider|ALT_INV_add_sub_28_result_int[5]~8_combout\ $end
$upscope $end
$upscope $end
$enddefinitions $end
#0
$dumpvars
0C
1D
xE
1F
1G
1H
1I
1J
1K
0n
0o
0p
0q
1r
1s
0t
0u
0v
0w
0x
0y
0z
0{
0|
0}
0~
0!!
0"!
0#!
0$!
1%!
0&!
1'!
1(!
1)!
0*!
0+!
1,!
0-!
1.!
0/!
10!
11!
12!
13!
04!
15!
06!
17!
08!
19!
0:!
0;!
1<!
0=!
1>!
1?!
0@!
1A!
0B!
0C!
1D!
1E!
0F!
1G!
0H!
1I!
0J!
1K!
0L!
1M!
0N!
1O!
0P!
0Q!
0R!
1S!
0T!
0U!
0V!
0W!
0X!
0Y!
0Z!
0[!
0\!
0]!
0^!
0_!
0`!
0a!
0b!
0c!
0d!
0e!
0f!
0g!
0h!
0i!
0j!
0k!
1l!
1m!
0n!
0o!
0p!
1q!
0r!
1s!
0t!
1u!
0v!
1w!
0x!
1y!
0z!
1{!
0|!
0}!
0~!
0!"
0""
0#"
1$"
1%"
0&"
0'"
1("
1)"
0*"
1+"
0,"
1-"
0."
1/"
00"
01"
12"
03"
14"
05"
16"
07"
08"
09"
0:"
0;"
0<"
1="
1>"
0?"
0@"
0A"
0B"
1C"
1D"
0E"
1F"
0G"
0H"
0I"
0J"
0K"
0L"
0M"
0N"
1O"
0P"
1Q"
0R"
1S"
0T"
1U"
1V"
0W"
0X"
1Y"
1Z"
1["
0\"
1]"
0^"
1_"
0`"
1a"
0b"
0c"
0d"
0e"
0f"
1g"
0h"
0i"
1j"
0k"
0l"
1m"
0n"
1o"
0p"
1q"
0r"
1s"
0t"
1u"
0v"
1w"
0x"
0y"
0z"
0{"
1|"
0}"
1~"
1!#
0"#
0##
0$#
0%#
1&#
0'#
0(#
1)#
0*#
0+#
0,#
0-#
1.#
0/#
10#
11#
02#
03#
04#
05#
06#
17#
18#
09#
05
06
07
08
09
0:
0;
0<
0=
1>
1?
1@
1A
0B
0L
1M
1N
1O
1P
0Q
0R
0S
0T
0U
0V
0W
0X
0Y
0Z
0[
1\
1]
0^
0_
0`
0a
0b
0c
0d
0e
0f
0g
0h
0i
0j
0k
0l
0m
0!
0"
0#
0$
0%
0&
0'
0(
0)
0*
0+
0,
0-
0.
1/
10
01
02
03
04
$end
#20000
1B
1Q
1$!
1n
1a
14
#39000
1<
1V
1I"
1v
1i
1,
#40000
0B
1=
0>
0?
0@
0A
0Q
0P
0O
0N
0M
1L
1&!
0'!
0(!
0D!
0%!
0$!
0S!
0C"
0E!
02"
1B!
0)!
0A!
10"
0$"
0/"
0?!
0>!
0%"
0-"
0<!
1+!
1;!
0+"
1'"
1*"
0("
1f!
09!
0,!
1:"
06"
1i!
0I!
0="
1%"
1&"
0l!
1?!
1*!
1@"
04"
1o!
0G!
0D"
1T!
0q!
0n
1~!
1r!
1}!
1E"
1l!
1H!
1p!
1="
15"
1A"
1<!
0+!
0m!
1+"
0'"
0>"
0f!
1j!
1;"
07!
1-!
1g!
0)"
0a
19#
04
0*"
1."
11"
05!
0.!
0g!
1("
1,"
19!
1,!
0E"
0:"
1>"
0~!
0r!
0i!
1m!
0F"
0s!
1!"
0j!
1s!
0!"
0;"
1F"
17!
0-!
1)"
03!
1/!
0="
05"
1:"
1o
09#
1t
1;"
0:"
16"
0>"
00!
01!
1*"
0,"
0."
01"
15!
1.!
1`
1p
1[
13
13!
0/!
1="
15"
1:"
06"
02!
0F"
0;"
1_
1.
0p
12
0t
1G"
16!
18!
1:!
0;!
1=!
1@!
1C!
1;"
0:"
1>"
10!
11!
14!
0_
0[
02
1Z!
12!
1W!
1F"
0;"
0G"
0l!
0H!
1i!
1c!
1`!
1]!
1H"
0.
07#
1^!
1a!
1d!
1j!
0i!
1I!
0m!
0H"
1X!
04!
06!
08!
0:!
1;!
0=!
0@!
0C!
0W!
1[!
17#
0X!
1l!
1H!
1i!
0I!
0c!
0`!
0]!
0Z!
1""
0s!
1f!
0j!
0r
1g!
1t!
1#"
0[!
0^!
0a!
0d!
0f!
1j!
0i!
1m!
0]
1r
0""
1s!
0j!
0t!
0g!
00
1]
0#"
10
1q
1^
11
0q
0^
01
#60000
1B
1Q
1$!
1n
1a
14
#78000
0<
1;
0V
1U
1J"
0I"
1W"
1v"
1+#
1-#
0Y"
1l"
0v
0w"
0m"
0.#
0i
1w
0,
1y"
1h
1+
#80000
0B
1A
0Q
1P
1%!
0$!
1S!
1C"
1D"
0T!
1q!
0n
1~!
0}!
0a
04
1!"
0o
0`
1p
03
1_
12
#90000
17
1Y
12#
1~
1m
1$
#100000
1B
1Q
1$!
1n
1a
14
#117000
1<
1V
1I"
1v
1i
1,
#120000
0B
0A
1@
0Q
0P
1O
1D!
0%!
0$!
0S!
0C"
1E!
12"
0@"
14"
0o!
1G!
0D"
1T!
0q!
0n
0~!
1}!
0l!
0H!
0p!
0="
05"
0A"
0a
04
1E"
1:"
0>"
1~!
1r!
1i!
0m!
0!"
1j!
0s!
1!"
1;"
0F"
1o
1`
0p
13
0_
1p
02
1_
12
#140000
1B
1Q
1$!
1n
1a
14
#156000
0<
0;
1:
0V
0U
1T
1M"
0J"
0I"
0W"
0v"
0+#
0j"
1N"
1i"
0)#
1{"
1(#
0&#
0|"
1w"
1x"
0g"
0O"
0-#
1Y"
0l"
0v
0w"
1d"
1##
0i
0w
0,
0h
1x
0+
1g
1*
#160000
0B
1A
0Q
1P
1%!
0$!
1S!
1C"
1D"
0T!
1q!
0n
0~!
0r!
0}!
0E"
0a
04
1""
0!"
1#"
0o
0`
0p
03
0_
1q
02
1^
11
#180000
1B
07
16
1Q
0Y
1X
13#
02#
1$!
1n
0~
1!!
1a
0m
1l
14
0$
1#
#195000
1<
1V
1I"
1v
1i
1,
#200000
0B
0A
0@
1?
0Q
0P
0O
1N
1(!
0D!
0%!
0$!
0S!
0C"
0E!
02"
0B!
1)!
1A!
00"
1$"
1/"
1="
0%"
0&"
1l!
0?!
0*!
1@"
04"
1o!
0G!
0D"
1T!
0q!
0n
1~!
1r!
1}!
1E"
0l!
1p!
0="
1A"
0<!
1+!
1m!
0+"
1'"
1>"
0a
04
0("
09!
0,!
0E"
0>"
0~!
0r!
0m!
1!"
0!"
07!
1-!
0)"
1o
19#
0*"
0/"
05!
0.!
1`
1p
13
03!
1/!
1="
15"
17"
1_
0p
12
1t
18"
0:"
1>"
00!
01!
0_
08#
1[
02
02!
1F"
0;"
0>"
0A"
1.
1E"
0F"
0;!
0A!
0s
1l!
1H!
1f!
1J!
1G"
0\
1H"
1c!
0K!
1g!
0i!
1m!
0/
07#
0""
1s!
0j!
1`!
1L!
1d!
1]!
0M!
1a!
0#"
0r
1Z!
1N!
1^!
0]
1W!
0O!
1[!
00
0q
1U!
1P!
1X!
0^
01
1Q!
0X!
0[!
0^!
0a!
0d!
0g!
0m!
0p!
1~!
1r!
1""
0s!
1t!
1#"
0""
1!"
0#"
0u!
1v!
1p
1q
0w!
1_
1^
0q
12
11
1x!
0^
01
0y!
1z!
0{!
1|!
0}!
0!"
0p
0o
0_
0`
03
02
#220000
1B
1Q
1$!
1n
1a
14
#234000
0<
1;
0V
1U
1J"
0I"
1W"
1v"
1+#
1-#
0Y"
1l"
0v
1w"
0i
1w
0,
1h
1+
#240000
0B
1A
0Q
1P
1%!
0$!
1R!
1}!
1B"
1D"
0T!
1q!
0n
0~!
0r!
0E"
0a
1o
04
1""
1`
13
#260000
1B
1Q
1$!
1n
1a
14
#270000
17
1Y
12#
1~
1m
1$
#273000
1<
1V
1I"
1v
1i
1,
